{
  "file_generated_by": "FlutterFire CLI",
  "purpose": "FirebaseAppID & ProjectID for this Firebase app in this directory",
  "GOOGLE_APP_ID": "1:652455328377:ios:e9bb35dbb95c413d3472a8",
  "FIREBASE_PROJECT_ID": "flutter-test-brech",
  "GCM_SENDER_ID": "652455328377"
}